<?xml version="1.0" encoding="utf-8"?>
<!-- Generator: Adobe Illustrator 19.1.0, SVG Export Plug-In . SVG Version: 6.00 Build 0)  -->
<!DOCTYPE svg PUBLIC "-//W3C//DTD SVG 1.0//EN" "http://www.w3.org/TR/2001/REC-SVG-20010904/DTD/svg10.dtd">
<svg version="1.0" id="Layer_1" xmlns="http://www.w3.org/2000/svg" xmlns:xlink="http://www.w3.org/1999/xlink" x="0px" y="0px"
	 viewBox="0 0 970 858" enable-background="new 0 0 970 858" xml:space="preserve">
<g>
	<path fill="#333333" d="M642.5,21.9l-14,24.2l-2.2-3.8l-5.2,9l4.9,8.5c1.1,1.9,3.9,1.9,5,0l21.8-37.8H642.5z"/>
	<path fill="#333333" d="M638.3,5.2h-38.6c-2.2,0-3.6,2.4-2.5,4.3l14.4,25l5.2-9l-6.5-11.4h17.6L609.4,46l-14-24.2h-10.4l21.8,37.8
		c1.1,1.9,3.9,1.9,5,0l28.9-50.1C642,7.6,640.6,5.2,638.3,5.2z"/>
</g>
<g>
	<g>
		<linearGradient id="SVGID_1_" gradientUnits="userSpaceOnUse" x1="569.5465" y1="94.7043" x2="569.5465" y2="83.6936">
			<stop  offset="0" style="stop-color:#FFFFFF"/>
			<stop  offset="1" style="stop-color:#676767"/>
		</linearGradient>
		<path fill="url(#SVGID_1_)" d="M573.4,94.7h-1.9l-2-8.6l-2,8.6h-1.9l-2.5-11h1.6l1.9,9l2-9h1.7l2,9l1.9-9h1.6L573.4,94.7z"/>
		<linearGradient id="SVGID_2_" gradientUnits="userSpaceOnUse" x1="588.7299" y1="94.7043" x2="588.7299" y2="83.6936">
			<stop  offset="0" style="stop-color:#FFFFFF"/>
			<stop  offset="1" style="stop-color:#676767"/>
		</linearGradient>
		<path fill="url(#SVGID_2_)" d="M591.9,94.7l-0.8-2.5h-4.8l-0.8,2.5h-1.6l3.8-11h2l3.8,11H591.9z M588.7,85.2l-1.9,5.6h3.8
			L588.7,85.2z"/>
		<linearGradient id="SVGID_3_" gradientUnits="userSpaceOnUse" x1="606.6747" y1="94.7043" x2="606.6747" y2="83.6936">
			<stop  offset="0" style="stop-color:#FFFFFF"/>
			<stop  offset="1" style="stop-color:#676767"/>
		</linearGradient>
		<path fill="url(#SVGID_3_)" d="M609.2,94.7l-2.6-4.6H604v4.6h-1.5v-11h5.2c0.4,0,0.9,0.1,1.2,0.4c0.3,0.2,0.8,0.8,1,1
			c0.2,0.3,0.3,0.7,0.3,1v1.7c0,0.4-0.1,0.7-0.3,1c-0.1,0.2-0.7,0.8-1,1c-0.2,0.2-0.6,0.3-0.8,0.3l2.7,4.6H609.2z M608.7,86.1
			c0,0,0-0.2,0-0.2c-0.1-0.2-0.6-0.8-0.9-0.8c0,0-0.1,0-0.1,0H604v3.6h3.7c0.3,0,0.9-0.5,1-0.8c0,0,0-0.2,0-0.2V86.1z"/>
		<linearGradient id="SVGID_4_" gradientUnits="userSpaceOnUse" x1="623.8843" y1="94.7043" x2="623.8843" y2="83.6936">
			<stop  offset="0" style="stop-color:#FFFFFF"/>
			<stop  offset="1" style="stop-color:#676767"/>
		</linearGradient>
		<path fill="url(#SVGID_4_)" d="M620.3,94.7v-1.2l5.3-8.4h-5.3v-1.4h7.1v1.2l-5.2,8.4h5.2v1.4H620.3z"/>
		<linearGradient id="SVGID_5_" gradientUnits="userSpaceOnUse" x1="640.9764" y1="94.7964" x2="640.9764" y2="83.6016">
			<stop  offset="0" style="stop-color:#FFFFFF"/>
			<stop  offset="1" style="stop-color:#676767"/>
		</linearGradient>
		<path fill="url(#SVGID_5_)" d="M644.8,93.2c-0.2,0.3-1,1.1-1.3,1.3c-0.3,0.2-0.7,0.3-1.1,0.3h-2.9c-0.3,0-0.8-0.1-1-0.3
			c-0.4-0.2-1.1-1-1.3-1.3c-0.2-0.3-0.3-0.7-0.3-1v-6c0-0.3,0.1-0.7,0.3-1c0.2-0.3,1-1.1,1.3-1.3c0.3-0.2,0.7-0.3,1-0.3h2.9
			c0.3,0,0.8,0.1,1.1,0.3c0.4,0.2,1.1,1,1.3,1.3c0.2,0.3,0.3,0.6,0.3,1v6C645.1,92.6,645,92.9,644.8,93.2z M643.6,86.2
			c0-0.1,0-0.1,0-0.2c-0.2-0.4-0.8-0.9-1-1c0,0-0.1,0-0.2,0h-2.8c-0.1,0-0.1,0-0.2,0c-0.3,0.1-1.1,0.8-1.1,1.2v6
			c0,0.3,0.8,1,1.1,1.1c0,0,0.1,0,0.2,0h2.8c0.1,0,0.1,0,0.2,0c0.3-0.1,1-0.8,1-1.1V86.2z"/>
		<linearGradient id="SVGID_6_" gradientUnits="userSpaceOnUse" x1="658.8562" y1="94.7043" x2="658.8562" y2="83.6936">
			<stop  offset="0" style="stop-color:#FFFFFF"/>
			<stop  offset="1" style="stop-color:#676767"/>
		</linearGradient>
		<path fill="url(#SVGID_6_)" d="M661,94.7l-4.6-8.4v8.4h-1.5v-11h1.8l4.6,8.5v-8.5h1.5v11H661z"/>
		<linearGradient id="SVGID_7_" gradientUnits="userSpaceOnUse" x1="676.1208" y1="94.7043" x2="676.1208" y2="83.6936">
			<stop  offset="0" style="stop-color:#FFFFFF"/>
			<stop  offset="1" style="stop-color:#676767"/>
		</linearGradient>
		<path fill="url(#SVGID_7_)" d="M672.7,94.7v-11h6.8v1.4h-5.2v3.4h5v1.4h-5v3.4h5.2v1.4H672.7z"/>
	</g>
	<g>
		<linearGradient id="SVGID_8_" gradientUnits="userSpaceOnUse" x1="541.4274" y1="115.4006" x2="541.4274" y2="104.3898">
			<stop  offset="0" style="stop-color:#FFFFFF"/>
			<stop  offset="1" style="stop-color:#676767"/>
		</linearGradient>
		<path fill="url(#SVGID_8_)" d="M544.8,115.4v-8.8l-2.9,5.9h-1l-2.8-5.9v8.8h-1.5v-11h1.9l2.9,6l3-6h1.9v11H544.8z"/>
		<linearGradient id="SVGID_9_" gradientUnits="userSpaceOnUse" x1="560.0046" y1="115.4926" x2="560.0046" y2="104.3898">
			<stop  offset="0" style="stop-color:#FFFFFF"/>
			<stop  offset="1" style="stop-color:#676767"/>
		</linearGradient>
		<path fill="url(#SVGID_9_)" d="M563.6,113.9c-0.2,0.3-1,1.1-1.3,1.3c-0.3,0.2-0.7,0.3-1,0.3h-2.5c-0.3,0-0.8-0.1-1.1-0.3
			c-0.4-0.2-1.1-1-1.3-1.3c-0.2-0.3-0.3-0.6-0.3-1v-8.6h1.5v8.5c0,0.3,0.8,1,1.1,1.1c0,0,0.1,0,0.1,0h2.3c0.1,0,0.1,0,0.2,0
			c0.3-0.1,1-0.9,1-1.1v-8.5h1.5v8.6C563.9,113.3,563.8,113.6,563.6,113.9z"/>
		<linearGradient id="SVGID_10_" gradientUnits="userSpaceOnUse" x1="577.0507" y1="115.4006" x2="577.0507" y2="104.3898">
			<stop  offset="0" style="stop-color:#FFFFFF"/>
			<stop  offset="1" style="stop-color:#676767"/>
		</linearGradient>
		<path fill="url(#SVGID_10_)" d="M573.7,115.4v-11h1.5v9.6h5.1v1.4H573.7z"/>
		<linearGradient id="SVGID_11_" gradientUnits="userSpaceOnUse" x1="591.2336" y1="115.4006" x2="591.2336" y2="104.3898">
			<stop  offset="0" style="stop-color:#FFFFFF"/>
			<stop  offset="1" style="stop-color:#676767"/>
		</linearGradient>
		<path fill="url(#SVGID_11_)" d="M592,105.8v9.6h-1.5v-9.6h-3.1v-1.4h7.8v1.4H592z"/>
		<linearGradient id="SVGID_12_" gradientUnits="userSpaceOnUse" x1="605.2696" y1="115.4006" x2="605.2696" y2="104.3898">
			<stop  offset="0" style="stop-color:#FFFFFF"/>
			<stop  offset="1" style="stop-color:#676767"/>
		</linearGradient>
		<path fill="url(#SVGID_12_)" d="M604.5,115.4v-11h1.5v11H604.5z"/>
		<linearGradient id="SVGID_13_" gradientUnits="userSpaceOnUse" x1="619.8108" y1="115.4006" x2="619.8108" y2="104.3898">
			<stop  offset="0" style="stop-color:#FFFFFF"/>
			<stop  offset="1" style="stop-color:#676767"/>
		</linearGradient>
		<path fill="url(#SVGID_13_)" d="M623.3,109.5c-0.1,0.2-0.7,0.8-1,1c-0.3,0.2-0.8,0.4-1.2,0.4h-3.7v4.6H616v-11h5.2
			c0.4,0,0.9,0.1,1.2,0.4c0.3,0.2,0.8,0.8,1,1c0.2,0.3,0.3,0.7,0.3,1v1.7C623.7,108.8,623.5,109.2,623.3,109.5z M622.2,106.8
			c0-0.1,0-0.1,0-0.2c-0.1-0.2-0.6-0.8-0.9-0.8c0,0-0.1,0-0.1,0h-3.6v3.6h3.7c0.3,0,0.8-0.5,1-0.7c0-0.1,0.1-0.1,0.1-0.2V106.8z"/>
		<linearGradient id="SVGID_14_" gradientUnits="userSpaceOnUse" x1="636.4982" y1="115.4006" x2="636.4982" y2="104.3898">
			<stop  offset="0" style="stop-color:#FFFFFF"/>
			<stop  offset="1" style="stop-color:#676767"/>
		</linearGradient>
		<path fill="url(#SVGID_14_)" d="M633.2,115.4v-11h1.5v9.6h5.1v1.4H633.2z"/>
		<linearGradient id="SVGID_15_" gradientUnits="userSpaceOnUse" x1="653.14" y1="115.4006" x2="653.14" y2="104.3898">
			<stop  offset="0" style="stop-color:#FFFFFF"/>
			<stop  offset="1" style="stop-color:#676767"/>
		</linearGradient>
		<path fill="url(#SVGID_15_)" d="M656.4,115.4l-0.8-2.5h-4.8l-0.8,2.5h-1.6l3.8-11h2l3.8,11H656.4z M653.1,105.9l-1.9,5.6h3.8
			L653.1,105.9z"/>
		<linearGradient id="SVGID_16_" gradientUnits="userSpaceOnUse" x1="669.1481" y1="115.4006" x2="669.1481" y2="104.3898">
			<stop  offset="0" style="stop-color:#FFFFFF"/>
			<stop  offset="1" style="stop-color:#676767"/>
		</linearGradient>
		<path fill="url(#SVGID_16_)" d="M669.9,110.7v4.7h-1.5v-4.7l-3.7-6.3h1.7l2.8,4.8c0,0,2.8-4.8,2.8-4.8h1.6L669.9,110.7z"/>
		<linearGradient id="SVGID_17_" gradientUnits="userSpaceOnUse" x1="685.7443" y1="115.4006" x2="685.7443" y2="104.3898">
			<stop  offset="0" style="stop-color:#FFFFFF"/>
			<stop  offset="1" style="stop-color:#676767"/>
		</linearGradient>
		<path fill="url(#SVGID_17_)" d="M682.4,115.4v-11h6.8v1.4h-5.2v3.4h5v1.4h-5v3.4h5.2v1.4H682.4z"/>
		<linearGradient id="SVGID_18_" gradientUnits="userSpaceOnUse" x1="703.2124" y1="115.4006" x2="703.2124" y2="104.3898">
			<stop  offset="0" style="stop-color:#FFFFFF"/>
			<stop  offset="1" style="stop-color:#676767"/>
		</linearGradient>
		<path fill="url(#SVGID_18_)" d="M705.7,115.4l-2.6-4.6h-2.5v4.6h-1.5v-11h5.2c0.4,0,0.9,0.1,1.2,0.4c0.3,0.2,0.8,0.8,1,1
			c0.2,0.3,0.3,0.7,0.3,1v1.7c0,0.4-0.1,0.7-0.3,1c-0.1,0.2-0.7,0.8-1,1c-0.2,0.2-0.6,0.3-0.8,0.3l2.7,4.6H705.7z M705.3,106.8
			c0,0,0-0.2,0-0.2c-0.1-0.2-0.6-0.8-0.9-0.8c0,0-0.1,0-0.1,0h-3.7v3.6h3.7c0.3,0,0.9-0.5,1-0.8c0,0,0-0.2,0-0.2V106.8z"/>
	</g>
</g>
<g>
	<path fill="#FFFFFF" d="M186.8,155.4h-2V149h-4v-1.8h10v1.8h-4V155.4z"/>
	<path fill="#FFFFFF" d="M193.5,153.8l-1,1.6h-2.4l5.4-8.2h1.7l5.3,8.2h-2.4l-1-1.6H193.5z M194.6,152.1h3.5l-1.8-2.8L194.6,152.1z"
		/>
	<path fill="#FFFFFF" d="M206.5,155.4h-2v-8.2h2v3.2h1.6l3.1-3.2h2.6l-4.1,4l4.3,4.1h-2.6l-3.2-3.2h-1.6V155.4z"/>
	<path fill="#FFFFFF" d="M217.9,149v1.4h6.7l-0.2,1.8h-6.5v1.4h7v1.8h-9.1v-8.2h8.7v1.8H217.9z"/>
	<path fill="#FFFFFF" d="M94,173.8c0-1.6,0.3-2.6,1.1-3.4c0.9-0.8,1.9-1.2,3.8-1.2h7.8c1.8,0,2.5-0.5,2.5-1.8v-0.9
		c0-1.3-0.7-1.8-2.5-1.8h-7.6c-1.8,0-2.3,0.4-2.5,1.8l-2.6-0.3c0.4-2.9,1.8-4,5-4h7.7c1.8,0,2.9,0.3,3.8,1.2
		c0.8,0.8,1.1,1.8,1.1,3.4v0.4c0,1.6-0.3,2.6-1.1,3.4c-0.9,0.8-2,1.2-3.8,1.2h-7.6c-1.8,0-2.4,0.5-2.5,1.8v2.7h15.2v2.5H94V173.8z"
		/>
	<path fill="#FFFFFF" d="M130.2,162.2h2.7v9.9h3l-0.3,2.5h-2.7v4.1h-2.7v-4.1h-13.5v-2.5L130.2,162.2z M120.8,172.2h9.4v-6.9
		L120.8,172.2z"/>
	<path fill="#FFFFFF" d="M165.3,162.2c1.8,0,2.9,0.3,3.8,1.2c0.8,0.8,1.2,1.9,1.2,3.8v1.7c0,1.9-0.3,3-1.2,3.8
		c-0.9,0.8-2,1.2-3.8,1.2h-12.2v5h-2.7v-16.5H165.3z M164.6,171.3c1.6,0,2-0.1,2.5-0.5c0.3-0.3,0.5-0.7,0.5-1.5v-2.7
		c0-0.7-0.1-1.2-0.5-1.5c-0.5-0.4-0.9-0.5-2.5-0.5h-11.6v6.6H164.6z"/>
	<path fill="#FFFFFF" d="M177.8,162.2v14.1h13.4l-0.3,2.5h-15.7v-16.5H177.8z"/>
	<path fill="#FFFFFF" d="M199.1,174.2l-3.2,4.6h-3l11.6-16.6h2l11.6,16.6h-3l-3.2-4.6H199.1z M200.9,171.7h9.3l-4.6-6.8L200.9,171.7
		z"/>
	<path fill="#FFFFFF" d="M217.4,162.2h3.3l7.6,7.9l7.6-7.9h3.3l-9.6,10v6.6H227v-6.6L217.4,162.2z"/>
	<path fill="#FFFFFF" d="M245.3,164.7v4.6h15l-0.3,2.5h-14.7v4.5H261v2.5h-18.4v-16.5h17.7v2.5H245.3z"/>
	<path fill="#FFFFFF" d="M281.3,162.2c1.8,0,2.9,0.3,3.8,1.2c0.8,0.8,1.2,1.9,1.2,3.8v1.2c0,1.9-0.3,3-1.2,3.8
		c-0.7,0.6-1.4,0.9-2.7,1.2l4,5.4h-3.3l-3.7-5.4H269v5.4h-2.7v-16.5H281.3z M280.6,170.9c1.6,0,2-0.1,2.5-0.5
		c0.3-0.3,0.5-0.7,0.5-1.5v-2.3c0-0.7-0.1-1.1-0.5-1.5c-0.5-0.4-0.9-0.5-2.5-0.5H269v6.2H280.6z"/>
	<path fill="#FFFFFF" d="M309.3,166.5c-0.1-0.7-0.2-1-0.5-1.3c-0.4-0.4-0.9-0.5-2.5-0.5h-8.6c-1.6,0-2,0.1-2.5,0.5
		c-0.3,0.3-0.5,0.7-0.5,1.5v0.6c0,0.7,0.1,1.2,0.5,1.5c0.5,0.4,0.9,0.5,2.5,0.5h9.2c1.9,0,3,0.3,3.8,1.2c0.7,0.7,1.2,1.9,1.2,3.3
		v0.6c0,1.3-0.4,2.5-1.2,3.3c-0.8,0.8-1.9,1.2-3.8,1.2h-9.9c-3.2,0-4.6-1.1-5-4l2.7-0.3c0.1,0.7,0.2,1.1,0.5,1.3
		c0.4,0.4,0.9,0.5,2.5,0.5h8.6c1.6,0,2-0.1,2.5-0.5c0.3-0.3,0.5-0.7,0.5-1.5v-0.6c0-0.7-0.2-1.1-0.5-1.5c-0.5-0.4-0.9-0.5-2.5-0.5
		h-9.2c-1.9,0-3-0.3-3.8-1.2c-0.7-0.8-1.2-2-1.2-3.3v-0.6c0-1.3,0.4-2.5,1.2-3.3c0.8-0.8,1.9-1.2,3.8-1.2h9.9c3.2,0,4.6,1.1,5,4
		L309.3,166.5z"/>
</g>
<g>
	<path fill="#FFFFFF" d="M167.3,221.2l-1.1,1.8h-2.6l5.9-9h1.9l5.9,9h-2.6l-1.1-1.8H167.3z M168.5,219.3h3.9l-1.9-3.1L168.5,219.3z"
		/>
	<path fill="#FFFFFF" d="M187.4,214c1,0,1.6,0.2,2.1,0.6c0.5,0.5,0.6,1,0.6,2.1v3.6c0,1-0.2,1.6-0.6,2.1c-0.5,0.5-1.1,0.6-2.1,0.6
		h-8.1v-9H187.4z M181.6,221h5.5c0.6,0,0.8-0.1,0.8-0.7v-3.7c0-0.5-0.2-0.7-0.8-0.7h-5.5V221z"/>
	<path fill="#FFFFFF" d="M201.4,214c1,0,1.6,0.2,2.1,0.6c0.5,0.5,0.6,1,0.6,2.1v3.6c0,1-0.2,1.6-0.6,2.1c-0.5,0.5-1.1,0.6-2.1,0.6
		h-8.1v-9H201.4z M195.6,221h5.5c0.6,0,0.8-0.1,0.8-0.7v-3.7c0-0.5-0.2-0.7-0.8-0.7h-5.5V221z"/>
</g>
<g>
	<path fill="#FFFFFF" d="M145.3,307.1l-3.2,4.6h-2.9l11.5-16.4h2l11.4,16.4h-2.9l-3.1-4.6H145.3z M147,304.6h9.2l-4.6-6.7L147,304.6
		z"/>
	<path fill="#FFFFFF" d="M182.7,295.3c1.8,0,2.9,0.3,3.8,1.2c0.8,0.8,1.2,1.9,1.2,3.7v1.2c0,1.9-0.3,2.9-1.2,3.7
		c-0.7,0.6-1.4,0.9-2.6,1.2l4,5.4h-3.3l-3.6-5.3h-10.3v5.3h-2.6v-16.4H182.7z M182,303.9c1.6,0,2-0.1,2.5-0.5
		c0.3-0.3,0.5-0.7,0.5-1.4v-2.3c0-0.7-0.1-1.1-0.5-1.5c-0.5-0.4-0.9-0.5-2.5-0.5h-11.4v6.1H182z"/>
	<path fill="#FFFFFF" d="M212,295.2h2.6v16.4H212v-13.4l-7.9,6.7l-7.9-6.7v13.4h-2.6v-16.4h2.6l7.9,6.8L212,295.2z"/>
	<path fill="#FFFFFF" d="M223.4,311.7h-2.6v-16.4h2.6V311.7z"/>
	<path fill="#FFFFFF" d="M232.2,297.7v4.5H247l-0.3,2.5h-14.6v4.5h15.6v2.5h-18.2v-16.4H247v2.5H232.2z"/>
	<path fill="#FFFFFF" d="M269.9,299.6c-0.1-0.7-0.2-1-0.5-1.3c-0.4-0.4-0.9-0.5-2.5-0.5h-8.5c-1.5,0-2,0.1-2.5,0.5
		c-0.3,0.3-0.5,0.7-0.5,1.5v0.6c0,0.7,0.1,1.2,0.5,1.5c0.5,0.4,0.9,0.5,2.5,0.5h9.1c1.8,0,2.9,0.3,3.8,1.2c0.7,0.7,1.2,1.9,1.2,3.2
		v0.6c0,1.3-0.4,2.5-1.2,3.2c-0.8,0.8-1.9,1.2-3.8,1.2h-9.8c-3.2,0-4.5-1.1-4.9-3.9l2.6-0.3c0.1,0.7,0.2,1.1,0.5,1.3
		c0.4,0.4,0.9,0.5,2.5,0.5h8.5c1.5,0,2-0.1,2.5-0.5c0.3-0.3,0.5-0.7,0.5-1.5v-0.6c0-0.7-0.1-1.1-0.5-1.5c-0.5-0.4-0.9-0.5-2.5-0.5
		h-9.1c-1.8,0-2.9-0.3-3.8-1.2c-0.7-0.8-1.2-1.9-1.2-3.2v-0.6c0-1.3,0.4-2.5,1.2-3.2c0.8-0.8,1.9-1.2,3.8-1.2h9.8
		c3.2,0,4.5,1.1,4.9,3.9L269.9,299.6z"/>
	<path fill="#FFFFFF" d="M100.3,307.1l-3.2,4.6h-2.9l11.5-16.4h2l11.4,16.4h-2.9l-3.1-4.6H100.3z M102,304.6h9.2l-4.6-6.7L102,304.6
		z"/>
	<path fill="#FFFFFF" d="M125.4,311.7h-2.6v-16.4h2.6V311.7z"/>
</g>
<g>
	<path fill="#FFFFFF" d="M130,365.8c0,1.8-0.4,2.6-1.5,3.2c0.6,0.2,0.9,0.3,1.1,0.5c0.8,0.7,1.2,1.8,1.2,3.4v0.3
		c0,3.1-1.6,4.6-5.1,4.6h-15.3v-17.1h14.5c3.5,0,5.1,1.5,5.1,4.6V365.8z M124.2,368.1c1.6,0,2.1-0.1,2.6-0.5
		c0.4-0.3,0.5-0.8,0.5-1.5v-0.6c0-0.8-0.2-1.2-0.5-1.5c-0.5-0.4-0.9-0.5-2.6-0.5h-11.1v4.7H124.2z M125.1,375.3
		c1.6,0,2.1-0.1,2.6-0.5c0.4-0.3,0.5-0.8,0.5-1.5v-0.6c0-0.7-0.2-1.2-0.5-1.5c-0.5-0.4-0.9-0.5-2.6-0.5h-11.9v4.7H125.1z"/>
	<path fill="#FFFFFF" d="M157,372.8c0,1.9-0.3,3-1.2,3.9c-0.9,0.9-2,1.2-3.9,1.2h-10.2c-1.9,0-3-0.4-3.9-1.2
		c-0.9-0.8-1.2-1.9-1.2-3.9V366c0-1.9,0.3-3,1.2-3.9c0.9-0.9,2-1.2,3.9-1.2h10.2c1.9,0,3,0.4,3.9,1.2c0.9,0.8,1.2,1.9,1.2,3.9V372.8
		z M139.3,372.3c0,1.6,0.1,2.1,0.5,2.6c0.4,0.4,0.9,0.5,2.6,0.5h8.8c1.7,0,2.1-0.1,2.6-0.5c0.4-0.4,0.5-1,0.5-2.6v-5.8
		c0-1.6-0.1-2.1-0.5-2.6c-0.4-0.4-0.9-0.5-2.6-0.5h-8.8c-1.7,0-2.1,0.1-2.6,0.5c-0.4,0.4-0.5,1-0.5,2.6V372.3z"/>
	<path fill="#FFFFFF" d="M180.7,365.3c-0.1-0.7-0.2-1.1-0.5-1.4c-0.4-0.4-0.9-0.5-2.6-0.5h-8.8c-1.6,0-2.1,0.1-2.6,0.5
		c-0.4,0.3-0.5,0.8-0.5,1.5v0.6c0,0.8,0.2,1.2,0.5,1.5c0.5,0.4,0.9,0.5,2.6,0.5h9.5c1.9,0,3.1,0.4,3.9,1.2c0.8,0.8,1.2,2,1.2,3.4
		v0.6c0,1.3-0.4,2.6-1.2,3.4c-0.8,0.9-2,1.2-3.9,1.2h-10.2c-3.3,0-4.7-1.1-5.1-4.1l2.7-0.4c0.1,0.7,0.2,1.1,0.5,1.4
		c0.4,0.4,0.9,0.5,2.6,0.5h8.8c1.6,0,2.1-0.1,2.6-0.5c0.4-0.3,0.5-0.8,0.5-1.5v-0.6c0-0.7-0.2-1.2-0.5-1.5c-0.5-0.4-0.9-0.5-2.6-0.5
		h-9.5c-1.9,0-3.1-0.4-3.9-1.2c-0.8-0.8-1.2-2-1.2-3.4v-0.6c0-1.4,0.4-2.6,1.2-3.4c0.8-0.9,2-1.2,3.9-1.2h10.2
		c3.3,0,4.7,1.1,5.1,4.1L180.7,365.3z"/>
	<path fill="#FFFFFF" d="M207.2,365.3c-0.1-0.7-0.2-1.1-0.5-1.4c-0.4-0.4-0.9-0.5-2.6-0.5h-8.8c-1.6,0-2.1,0.1-2.6,0.5
		c-0.4,0.3-0.5,0.8-0.5,1.5v0.6c0,0.8,0.2,1.2,0.5,1.5c0.5,0.4,0.9,0.5,2.6,0.5h9.5c1.9,0,3.1,0.4,3.9,1.2c0.8,0.8,1.2,2,1.2,3.4
		v0.6c0,1.3-0.4,2.6-1.2,3.4c-0.8,0.9-2,1.2-3.9,1.2h-10.2c-3.3,0-4.7-1.1-5.1-4.1l2.7-0.4c0.1,0.7,0.2,1.1,0.5,1.4
		c0.4,0.4,0.9,0.5,2.6,0.5h8.8c1.6,0,2.1-0.1,2.6-0.5c0.4-0.3,0.5-0.8,0.5-1.5v-0.6c0-0.7-0.2-1.2-0.5-1.5c-0.5-0.4-0.9-0.5-2.6-0.5
		h-9.5c-1.9,0-3.1-0.4-3.9-1.2c-0.8-0.8-1.2-2-1.2-3.4v-0.6c0-1.4,0.4-2.6,1.2-3.4c0.8-0.9,2-1.2,3.9-1.2h10.2
		c3.3,0,4.7,1.1,5.1,4.1L207.2,365.3z"/>
	<path fill="#FFFFFF" d="M218.9,363.4v4.7h15.5l-0.3,2.6h-15.2v4.7h16.2v2.6h-18.9v-17.1h18.2v2.6H218.9z"/>
	<path fill="#FFFFFF" d="M258.2,365.3c-0.1-0.7-0.2-1.1-0.5-1.4c-0.4-0.4-0.9-0.5-2.6-0.5h-8.8c-1.6,0-2.1,0.1-2.6,0.5
		c-0.4,0.3-0.5,0.8-0.5,1.5v0.6c0,0.8,0.2,1.2,0.5,1.5c0.5,0.4,0.9,0.5,2.6,0.5h9.5c1.9,0,3.1,0.4,3.9,1.2c0.8,0.8,1.2,2,1.2,3.4
		v0.6c0,1.3-0.4,2.6-1.2,3.4c-0.8,0.9-2,1.2-3.9,1.2h-10.2c-3.3,0-4.7-1.1-5.1-4.1l2.7-0.4c0.1,0.7,0.2,1.1,0.5,1.4
		c0.4,0.4,0.9,0.5,2.6,0.5h8.8c1.6,0,2.1-0.1,2.6-0.5c0.4-0.3,0.5-0.8,0.5-1.5v-0.6c0-0.7-0.2-1.2-0.5-1.5c-0.5-0.4-0.9-0.5-2.6-0.5
		h-9.5c-1.9,0-3.1-0.4-3.9-1.2c-0.8-0.8-1.2-2-1.2-3.4v-0.6c0-1.4,0.4-2.6,1.2-3.4c0.8-0.9,2-1.2,3.9-1.2h10.2
		c3.3,0,4.7,1.1,5.1,4.1L258.2,365.3z"/>
</g>
<path fill="#FFFFFF" d="M173.6,409.3h-1.4v-5.8h1.4V409.3z"/>
<path fill="#FFFFFF" d="M179.2,409.3h-1.4v-4.5H175v-1.3h7v1.3h-2.8V409.3z"/>
<path fill="#FFFFFF" d="M185,403v0.8c0,0.7-0.1,1.1-0.6,1.7H183c0.5-0.9,0.6-1.3,0.6-1.7V403H185z"/>
<path fill="#FFFFFF" d="M188.1,407.7c0.1,0.3,0.2,0.4,0.7,0.4h2.8c0.4,0,0.5-0.1,0.5-0.4v-0.2c0-0.3-0.1-0.4-0.5-0.4h-3.2
	c-0.7,0-1-0.1-1.3-0.4c-0.3-0.3-0.4-0.7-0.4-1.1v-0.3c0-0.5,0.1-0.9,0.4-1.1c0.3-0.3,0.7-0.4,1.3-0.4h3.5c0.6,0,1,0.1,1.3,0.4
	c0.3,0.3,0.4,0.5,0.4,1.1l-1.4,0.2c-0.1-0.3-0.2-0.4-0.7-0.4h-2.8c-0.4,0-0.5,0.1-0.5,0.4v0.2c0,0.3,0.1,0.4,0.5,0.4h3.2
	c0.6,0,1,0.1,1.3,0.4c0.3,0.3,0.4,0.7,0.4,1.1v0.3c0,0.5-0.1,0.9-0.4,1.1c-0.3,0.3-0.7,0.4-1.3,0.4h-3.5c-0.6,0-1-0.1-1.3-0.4
	c-0.3-0.3-0.4-0.5-0.4-1.1L188.1,407.7z"/>
<g>
	<path fill="#FFFFFF" d="M146.8,480.2c1.3,0,2,0.2,2.6,0.8c0.6,0.6,0.8,1.3,0.8,2.6v1.1c0,1.3-0.2,2-0.8,2.6
		c-0.6,0.6-1.3,0.8-2.6,0.8h-8.3v3.4h-1.8v-11.3H146.8z M146.3,486.4c1.1,0,1.4-0.1,1.7-0.3c0.2-0.2,0.3-0.5,0.3-1v-1.8
		c0-0.5-0.1-0.8-0.3-1c-0.3-0.3-0.6-0.3-1.7-0.3h-7.9v4.5H146.3z"/>
	<path fill="#FFFFFF" d="M155.3,480.2v9.6h9.1l-0.2,1.7h-10.7v-11.3H155.3z"/>
	<path fill="#FFFFFF" d="M169.8,488.3l-2.2,3.1h-2l7.9-11.3h1.4l7.9,11.3h-2l-2.2-3.1H169.8z M171,486.6h6.3l-3.1-4.6L171,486.6z"/>
	<path fill="#FFFFFF" d="M182.3,480.2h2.3l5.2,5.4l5.2-5.4h2.3l-6.5,6.8v4.5h-1.8V487L182.3,480.2z"/>
	<path fill="#FFFFFF" d="M201.3,481.9v3.1h10.2l-0.2,1.7h-10v3.1H212v1.7h-12.5v-11.3h12.1v1.7H201.3z"/>
	<path fill="#FFFFFF" d="M225.8,480.2c1.3,0,2,0.2,2.6,0.8c0.6,0.6,0.8,1.3,0.8,2.6v0.8c0,1.3-0.2,2-0.8,2.6
		c-0.5,0.4-0.9,0.6-1.8,0.8l2.7,3.7H227l-2.5-3.7h-7.1v3.7h-1.8v-11.3H225.8z M225.4,486.1c1.1,0,1.4-0.1,1.7-0.3
		c0.2-0.2,0.3-0.5,0.3-1v-1.6c0-0.5-0.1-0.8-0.3-1c-0.3-0.3-0.6-0.3-1.7-0.3h-7.9v4.2H225.4z"/>
</g>
<path fill="#FFFFFF" d="M181.5,564.2h1.1l-3.8,5.8h-0.6l-3.8-5.8h1.1l3,4.6L181.5,564.2z"/>
<path fill="#FFFFFF" d="M189.7,565.8c0-0.2-0.1-0.4-0.2-0.5c-0.1-0.1-0.3-0.2-0.9-0.2h-3c-0.5,0-0.7,0-0.9,0.2
	c-0.1,0.1-0.2,0.3-0.2,0.5v0.2c0,0.3,0.1,0.4,0.2,0.5c0.2,0.1,0.3,0.2,0.9,0.2h3.2c0.6,0,1,0.1,1.3,0.4c0.3,0.3,0.4,0.7,0.4,1.1v0.2
	c0,0.5-0.1,0.9-0.4,1.1c-0.3,0.3-0.7,0.4-1.3,0.4h-3.5c-1.1,0-1.6-0.4-1.7-1.4l0.9-0.1c0,0.2,0.1,0.4,0.2,0.5
	c0.1,0.1,0.3,0.2,0.9,0.2h3c0.5,0,0.7,0,0.9-0.2c0.1-0.1,0.2-0.3,0.2-0.5v-0.2c0-0.3-0.1-0.4-0.2-0.5c-0.2-0.1-0.3-0.2-0.9-0.2h-3.2
	c-0.7,0-1-0.1-1.3-0.4c-0.3-0.3-0.4-0.7-0.4-1.1v-0.2c0-0.5,0.1-0.9,0.4-1.1c0.3-0.3,0.7-0.4,1.3-0.4h3.5c1.1,0,1.6,0.4,1.7,1.4
	L189.7,565.8z"/>
<g>
	<path fill="#FFFFFF" d="M105.1,642v3.3h10.7l-0.2,1.8h-10.5v3.2h11.2v1.8h-13.1v-11.8h12.6v1.8H105.1z"/>
	<path fill="#FFFFFF" d="M133,640.2h2.2l-7.7,11.8h-1.3l-7.7-11.8h2.2l6.1,9.4L133,640.2z"/>
	<path fill="#FFFFFF" d="M139.9,642v3.3h10.7l-0.2,1.8h-10.5v3.2h11.2v1.8H138v-11.8h12.6v1.8H139.9z"/>
	<path fill="#FFFFFF" d="M165.6,640.2c1.3,0,2.1,0.2,2.7,0.8c0.6,0.6,0.8,1.3,0.8,2.7v0.9c0,1.3-0.2,2.1-0.8,2.7
		c-0.5,0.5-1,0.7-1.9,0.8l2.9,3.9h-2.4l-2.6-3.8h-7.4v3.8H155v-11.8H165.6z M165.1,646.4c1.1,0,1.4-0.1,1.8-0.4
		c0.2-0.2,0.4-0.5,0.4-1v-1.6c0-0.5-0.1-0.8-0.4-1c-0.3-0.3-0.6-0.4-1.8-0.4h-8.3v4.4H165.1z"/>
	<path fill="#FFFFFF" d="M171.4,640.2h2.4l5.4,5.7l5.4-5.7h2.4l-6.9,7.1v4.7h-1.9v-4.7L171.4,640.2z"/>
	<path fill="#FFFFFF" d="M196.3,652.1h-1.9v-10h-6.1v-1.8h14.2v1.8h-6.1V652.1z"/>
	<path fill="#FFFFFF" d="M207.2,652.1h-1.9v-11.8h1.9v5h10.3v-5h2v11.8h-2v-5h-10.3V652.1z"/>
	<path fill="#FFFFFF" d="M225.8,652.1h-1.9v-11.8h1.9V652.1z"/>
	<path fill="#FFFFFF" d="M232.1,652.1h-1.9v-11.8h1.9l10.4,6.4v-6.4h1.9v11.8h-1.9v-3.4l-10.4-6.3V652.1z"/>
	<path fill="#FFFFFF" d="M261,643.3c-0.1-0.5-0.1-0.7-0.4-1c-0.3-0.3-0.6-0.4-1.8-0.4h-6.1c-1.2,0-1.5,0.1-1.8,0.4
		c-0.3,0.3-0.4,0.7-0.4,1.8v4c0,1.1,0.1,1.5,0.4,1.8c0.3,0.3,0.6,0.4,1.8,0.4h6.1c1.1,0,1.5-0.1,1.8-0.4c0.3-0.3,0.4-0.5,0.4-1.6
		V647h-5l0.2-1.8h6.6v3.2c0,1.4-0.2,2.1-0.8,2.7c-0.6,0.6-1.4,0.8-2.7,0.8h-7.1c-1.3,0-2.1-0.2-2.7-0.8c-0.6-0.6-0.8-1.3-0.8-2.7
		v-4.7c0-1.4,0.2-2.1,0.8-2.7c0.6-0.6,1.4-0.8,2.7-0.8h7.1c2.3,0,3.3,0.8,3.5,2.8L261,643.3z"/>
</g>
<g>
	<linearGradient id="SVGID_19_" gradientUnits="userSpaceOnUse" x1="250.1293" y1="723.2911" x2="250.1293" y2="716.7089">
		<stop  offset="0.438" style="stop-color:#323232"/>
		<stop  offset="1" style="stop-color:#252525"/>
	</linearGradient>
	<path fill="url(#SVGID_19_)" d="M252.4,723.3h-1.1l-1.2-5.1l-1.2,5.1h-1.1l-1.5-6.6h0.9l1.2,5.4l1.2-5.4h1l1.2,5.4l1.2-5.4h0.9
		L252.4,723.3z"/>
	<linearGradient id="SVGID_20_" gradientUnits="userSpaceOnUse" x1="261.5974" y1="723.2911" x2="261.5974" y2="716.7089">
		<stop  offset="0.438" style="stop-color:#323232"/>
		<stop  offset="1" style="stop-color:#252525"/>
	</linearGradient>
	<path fill="url(#SVGID_20_)" d="M263.5,723.3l-0.5-1.5h-2.9l-0.5,1.5h-1l2.3-6.6h1.2l2.3,6.6H263.5z M261.6,717.6l-1.1,3.3h2.3
		L261.6,717.6z"/>
	<linearGradient id="SVGID_21_" gradientUnits="userSpaceOnUse" x1="272.3249" y1="723.2911" x2="272.3249" y2="716.7089">
		<stop  offset="0.438" style="stop-color:#323232"/>
		<stop  offset="1" style="stop-color:#252525"/>
	</linearGradient>
	<path fill="url(#SVGID_21_)" d="M273.8,723.3l-1.5-2.7h-1.5v2.7h-0.9v-6.6h3.1c0.3,0,0.5,0.1,0.7,0.2c0.2,0.1,0.5,0.4,0.6,0.6
		c0.1,0.2,0.2,0.4,0.2,0.6v1c0,0.2-0.1,0.4-0.2,0.6c-0.1,0.1-0.4,0.5-0.6,0.6c-0.1,0.1-0.3,0.2-0.5,0.2l1.6,2.8H273.8z M273.6,718.2
		c0,0,0-0.1,0-0.1c-0.1-0.1-0.4-0.5-0.5-0.5c0,0,0,0-0.1,0h-2.2v2.1h2.2c0.2,0,0.5-0.3,0.6-0.5c0,0,0-0.1,0-0.1V718.2z"/>
	<linearGradient id="SVGID_22_" gradientUnits="userSpaceOnUse" x1="282.613" y1="723.2911" x2="282.613" y2="716.7089">
		<stop  offset="0.438" style="stop-color:#323232"/>
		<stop  offset="1" style="stop-color:#252525"/>
	</linearGradient>
	<path fill="url(#SVGID_22_)" d="M280.5,723.3v-0.7l3.2-5h-3.2v-0.9h4.3v0.7l-3.1,5h3.1v0.9H280.5z"/>
	<linearGradient id="SVGID_23_" gradientUnits="userSpaceOnUse" x1="292.8308" y1="723.3462" x2="292.8308" y2="716.6538">
		<stop  offset="0.438" style="stop-color:#323232"/>
		<stop  offset="1" style="stop-color:#252525"/>
	</linearGradient>
	<path fill="url(#SVGID_23_)" d="M295.1,722.4c-0.1,0.2-0.6,0.6-0.8,0.8c-0.2,0.1-0.4,0.2-0.6,0.2H292c-0.2,0-0.4-0.1-0.6-0.2
		c-0.2-0.1-0.7-0.6-0.8-0.8c-0.1-0.2-0.2-0.4-0.2-0.6v-3.6c0-0.2,0-0.4,0.2-0.6c0.1-0.2,0.6-0.6,0.8-0.8c0.2-0.1,0.4-0.2,0.6-0.2
		h1.7c0.2,0,0.5,0.1,0.6,0.2c0.2,0.1,0.7,0.6,0.8,0.8c0.1,0.2,0.2,0.4,0.2,0.6v3.6C295.3,722,295.2,722.2,295.1,722.4z M294.4,718.2
		C294.4,718.2,294.4,718.1,294.4,718.2c-0.1-0.3-0.5-0.6-0.6-0.7c0,0-0.1,0-0.1,0H292c0,0-0.1,0-0.1,0c-0.2,0.1-0.6,0.5-0.6,0.7v3.6
		c0,0.2,0.5,0.6,0.6,0.7c0,0,0.1,0,0.1,0h1.6c0,0,0.1,0,0.1,0c0.2-0.1,0.6-0.5,0.6-0.7V718.2z"/>
	<linearGradient id="SVGID_24_" gradientUnits="userSpaceOnUse" x1="303.5195" y1="723.2911" x2="303.5195" y2="716.7089">
		<stop  offset="0.438" style="stop-color:#323232"/>
		<stop  offset="1" style="stop-color:#252525"/>
	</linearGradient>
	<path fill="url(#SVGID_24_)" d="M304.8,723.3l-2.8-5v5h-0.9v-6.6h1.1l2.7,5.1v-5.1h0.9v6.6H304.8z"/>
	<linearGradient id="SVGID_25_" gradientUnits="userSpaceOnUse" x1="313.8404" y1="723.2911" x2="313.8404" y2="716.7089">
		<stop  offset="0.438" style="stop-color:#323232"/>
		<stop  offset="1" style="stop-color:#252525"/>
	</linearGradient>
	<path fill="url(#SVGID_25_)" d="M311.8,723.3v-6.6h4v0.9h-3.1v2h3v0.9h-3v2h3.1v0.9H311.8z"/>
</g>
<linearGradient id="SVGID_26_" gradientUnits="userSpaceOnUse" x1="334.9956" y1="722.9788" x2="334.9956" y2="716.9709">
	<stop  offset="0.438" style="stop-color:#323232"/>
	<stop  offset="1" style="stop-color:#252525"/>
</linearGradient>
<path fill="url(#SVGID_26_)" d="M336.8,723v-4.8l-1.6,3.2h-0.5l-1.6-3.2v4.8h-0.8v-6h1l1.6,3.3l1.6-3.3h1v6H336.8z"/>
<linearGradient id="SVGID_27_" gradientUnits="userSpaceOnUse" x1="346.1321" y1="723.0291" x2="346.1321" y2="716.9709">
	<stop  offset="0.438" style="stop-color:#323232"/>
	<stop  offset="1" style="stop-color:#252525"/>
</linearGradient>
<path fill="url(#SVGID_27_)" d="M348.1,722.2c-0.1,0.2-0.5,0.6-0.7,0.7c-0.2,0.1-0.4,0.2-0.6,0.2h-1.3c-0.2,0-0.4-0.1-0.6-0.2
	c-0.2-0.1-0.6-0.5-0.7-0.7c-0.1-0.2-0.2-0.3-0.2-0.5V717h0.8v4.6c0,0.2,0.5,0.5,0.6,0.6c0,0,0,0,0.1,0h1.2c0,0,0.1,0,0.1,0
	c0.2-0.1,0.6-0.5,0.6-0.6V717h0.8v4.7C348.2,721.8,348.2,722,348.1,722.2z"/>
<linearGradient id="SVGID_28_" gradientUnits="userSpaceOnUse" x1="356.4332" y1="722.9788" x2="356.4332" y2="716.9709">
	<stop  offset="0.438" style="stop-color:#323232"/>
	<stop  offset="1" style="stop-color:#252525"/>
</linearGradient>
<path fill="url(#SVGID_28_)" d="M354.6,723v-6h0.8v5.2h2.8v0.8H354.6z"/>
<linearGradient id="SVGID_29_" gradientUnits="userSpaceOnUse" x1="365.172" y1="722.9788" x2="365.172" y2="716.9709">
	<stop  offset="0.438" style="stop-color:#323232"/>
	<stop  offset="1" style="stop-color:#252525"/>
</linearGradient>
<path fill="url(#SVGID_29_)" d="M365.6,717.8v5.2h-0.8v-5.2H363V717h4.2v0.8H365.6z"/>
<linearGradient id="SVGID_30_" gradientUnits="userSpaceOnUse" x1="373.8306" y1="722.9788" x2="373.8306" y2="716.9709">
	<stop  offset="0.438" style="stop-color:#323232"/>
	<stop  offset="1" style="stop-color:#252525"/>
</linearGradient>
<path fill="url(#SVGID_30_)" d="M373.4,723v-6h0.8v6H373.4z"/>
<linearGradient id="SVGID_31_" gradientUnits="userSpaceOnUse" x1="382.7649" y1="722.9788" x2="382.7649" y2="716.9709">
	<stop  offset="0.438" style="stop-color:#323232"/>
	<stop  offset="1" style="stop-color:#252525"/>
</linearGradient>
<path fill="url(#SVGID_31_)" d="M384.7,719.7c-0.1,0.1-0.4,0.4-0.5,0.5c-0.2,0.1-0.4,0.2-0.7,0.2h-2v2.5h-0.8v-6h2.8
	c0.2,0,0.5,0.1,0.7,0.2c0.1,0.1,0.5,0.4,0.5,0.5c0.1,0.2,0.2,0.4,0.2,0.6v0.9C384.9,719.4,384.8,719.6,384.7,719.7z M384,718.3
	c0-0.1,0-0.1,0-0.1c0-0.1-0.4-0.4-0.5-0.4c0,0,0,0-0.1,0h-2v1.9h2c0.2,0,0.4-0.3,0.5-0.4c0,0,0-0.1,0-0.1V718.3z"/>
<linearGradient id="SVGID_32_" gradientUnits="userSpaceOnUse" x1="392.8703" y1="722.9788" x2="392.8703" y2="716.9709">
	<stop  offset="0.438" style="stop-color:#323232"/>
	<stop  offset="1" style="stop-color:#252525"/>
</linearGradient>
<path fill="url(#SVGID_32_)" d="M391.1,723v-6h0.8v5.2h2.8v0.8H391.1z"/>
<linearGradient id="SVGID_33_" gradientUnits="userSpaceOnUse" x1="402.9507" y1="722.9788" x2="402.9507" y2="716.9709">
	<stop  offset="0.438" style="stop-color:#323232"/>
	<stop  offset="1" style="stop-color:#252525"/>
</linearGradient>
<path fill="url(#SVGID_33_)" d="M404.7,723l-0.5-1.3h-2.6l-0.5,1.3h-0.9l2.1-6h1.1l2.1,6H404.7z M403,717.8l-1,3.1h2.1L403,717.8z"
	/>
<linearGradient id="SVGID_34_" gradientUnits="userSpaceOnUse" x1="412.6854" y1="722.9788" x2="412.6854" y2="716.9709">
	<stop  offset="0.438" style="stop-color:#323232"/>
	<stop  offset="1" style="stop-color:#252525"/>
</linearGradient>
<path fill="url(#SVGID_34_)" d="M413.1,720.4v2.6h-0.8v-2.6l-2-3.5h0.9l1.5,2.6c0,0,1.5-2.6,1.5-2.6h0.9L413.1,720.4z"/>
<linearGradient id="SVGID_35_" gradientUnits="userSpaceOnUse" x1="422.741" y1="722.9788" x2="422.741" y2="716.9709">
	<stop  offset="0.438" style="stop-color:#323232"/>
	<stop  offset="1" style="stop-color:#252525"/>
</linearGradient>
<path fill="url(#SVGID_35_)" d="M420.9,723v-6h3.7v0.8h-2.9v1.8h2.7v0.8h-2.7v1.8h2.9v0.8H420.9z"/>
<linearGradient id="SVGID_36_" gradientUnits="userSpaceOnUse" x1="433.2723" y1="722.9788" x2="433.2723" y2="716.9709">
	<stop  offset="0.438" style="stop-color:#323232"/>
	<stop  offset="1" style="stop-color:#252525"/>
</linearGradient>
<path fill="url(#SVGID_36_)" d="M434.6,723l-1.4-2.5h-1.4v2.5H431v-6h2.8c0.2,0,0.5,0.1,0.7,0.2c0.1,0.1,0.5,0.4,0.5,0.5
	c0.1,0.2,0.2,0.4,0.2,0.6v0.9c0,0.2-0.1,0.4-0.2,0.6c-0.1,0.1-0.4,0.4-0.5,0.5c-0.1,0.1-0.3,0.2-0.5,0.2l1.5,2.5H434.6z
	 M434.4,718.3c0,0,0-0.1,0-0.1c-0.1-0.1-0.4-0.4-0.5-0.4c0,0,0,0-0.1,0h-2v1.9h2c0.2,0,0.5-0.3,0.6-0.4c0,0,0-0.1,0-0.1V718.3z"/>
<polygon fill="#2A3D44" stroke="#608899" stroke-width="0.5" stroke-miterlimit="10" points="495.2,776.8 569.1,776.8 638,776.8 
	643.8,773.6 643.8,753.3 638.9,749.2 603.4,749.2 600,750.9 570.3,750.9 567.9,750.9 533.2,750.9 529.8,749.2 494.3,749.2 
	489.4,753.3 489.4,773.6 "/>
<g>
	<path fill="#FFFFFF" d="M507.4,760.2c0.8,0,1.3,0.2,1.7,0.5c0.4,0.4,0.5,0.8,0.5,1.7v0.7c0,0.8-0.1,1.3-0.5,1.7
		c-0.4,0.4-0.9,0.5-1.7,0.5H502v2.2h-1.2v-7.4H507.4z M507.1,764.2c0.7,0,0.9,0,1.1-0.2c0.2-0.1,0.2-0.3,0.2-0.7v-1.2
		c0-0.3-0.1-0.5-0.2-0.7c-0.2-0.2-0.4-0.2-1.1-0.2H502v3H507.1z"/>
	<path fill="#FFFFFF" d="M518.5,760.2c0.8,0,1.3,0.2,1.7,0.5c0.4,0.4,0.5,0.8,0.5,1.7v0.6c0,0.8-0.2,1.3-0.5,1.7
		c-0.3,0.3-0.6,0.4-1.2,0.5l1.8,2.4h-1.5l-1.6-2.4H513v2.4h-1.2v-7.4H518.5z M518.2,764.1c0.7,0,0.9,0,1.1-0.2
		c0.2-0.1,0.2-0.3,0.2-0.7v-1c0-0.3-0.1-0.5-0.2-0.7c-0.2-0.2-0.4-0.2-1.1-0.2H513v2.8H518.2z"/>
	<path fill="#FFFFFF" d="M524.5,761.3v2h6.7l-0.1,1.1h-6.6v2h7v1.1h-8.2v-7.4h7.9v1.1H524.5z"/>
	<path fill="#FFFFFF" d="M532.8,763.3h3.8v1.1h-3.8V763.3z"/>
	<path fill="#FFFFFF" d="M547,765.4c0,0.8-0.1,1.3-0.5,1.7c-0.4,0.4-0.9,0.5-1.7,0.5h-4.4c-0.8,0-1.3-0.2-1.7-0.5
		c-0.4-0.4-0.5-0.8-0.5-1.7v-3c0-0.8,0.1-1.3,0.5-1.7c0.4-0.4,0.9-0.5,1.7-0.5h4.4c0.8,0,1.3,0.2,1.7,0.5c0.4,0.4,0.5,0.8,0.5,1.7
		V765.4z M539.4,765.1c0,0.7,0,0.9,0.2,1.1c0.2,0.2,0.4,0.2,1.1,0.2h3.8c0.7,0,0.9,0,1.1-0.2c0.2-0.2,0.2-0.4,0.2-1.1v-2.5
		c0-0.7,0-0.9-0.2-1.1c-0.2-0.2-0.4-0.2-1.1-0.2h-3.8c-0.7,0-0.9,0-1.1,0.2c-0.2,0.2-0.2,0.4-0.2,1.1V765.1z"/>
	<path fill="#FFFFFF" d="M556.4,760.2c0.8,0,1.3,0.2,1.7,0.5c0.4,0.4,0.5,0.8,0.5,1.7v0.6c0,0.8-0.2,1.3-0.5,1.7
		c-0.3,0.3-0.6,0.4-1.2,0.5l1.8,2.4h-1.5l-1.6-2.4h-4.6v2.4h-1.2v-7.4H556.4z M556.1,764.1c0.7,0,0.9,0,1.1-0.2
		c0.2-0.1,0.2-0.3,0.2-0.7v-1c0-0.3-0.1-0.5-0.2-0.7c-0.2-0.2-0.4-0.2-1.1-0.2h-5.2v2.8H556.1z"/>
	<path fill="#FFFFFF" d="M567.9,760.2c0.8,0,1.3,0.2,1.7,0.5c0.4,0.4,0.5,0.8,0.5,1.7v3c0,0.8-0.1,1.3-0.5,1.7
		c-0.4,0.4-0.9,0.5-1.7,0.5h-6.6v-7.4H567.9z M562.5,766.5h5.2c0.7,0,0.9,0,1.1-0.2c0.2-0.2,0.2-0.4,0.2-1.1v-2.5
		c0-0.7,0-0.9-0.2-1.1c-0.2-0.2-0.4-0.2-1.1-0.2h-5.2V766.5z"/>
	<path fill="#FFFFFF" d="M574,761.3v2h6.7l-0.1,1.1H574v2h7v1.1h-8.2v-7.4h7.9v1.1H574z"/>
	<path fill="#FFFFFF" d="M590,760.2c0.8,0,1.3,0.2,1.7,0.5c0.4,0.4,0.5,0.8,0.5,1.7v0.6c0,0.8-0.2,1.3-0.5,1.7
		c-0.3,0.3-0.6,0.4-1.2,0.5l1.8,2.4h-1.5l-1.6-2.4h-4.6v2.4h-1.2v-7.4H590z M589.7,764.1c0.7,0,0.9,0,1.1-0.2
		c0.2-0.1,0.2-0.3,0.2-0.7v-1c0-0.3-0.1-0.5-0.2-0.7c-0.2-0.2-0.4-0.2-1.1-0.2h-5.2v2.8H589.7z"/>
	<path fill="#FFFFFF" d="M600.5,767.6h-1.2v-7.4h1.2l6.5,4v-4h1.2v7.4H607v-2.1l-6.5-4V767.6z"/>
	<path fill="#FFFFFF" d="M619.7,765.4c0,0.8-0.1,1.3-0.5,1.7c-0.4,0.4-0.9,0.5-1.7,0.5H613c-0.8,0-1.3-0.2-1.7-0.5
		c-0.4-0.4-0.5-0.8-0.5-1.7v-3c0-0.8,0.1-1.3,0.5-1.7c0.4-0.4,0.9-0.5,1.7-0.5h4.4c0.8,0,1.3,0.2,1.7,0.5c0.4,0.4,0.5,0.8,0.5,1.7
		V765.4z M612,765.1c0,0.7,0,0.9,0.2,1.1c0.2,0.2,0.4,0.2,1.1,0.2h3.8c0.7,0,0.9,0,1.1-0.2c0.2-0.2,0.2-0.4,0.2-1.1v-2.5
		c0-0.7,0-0.9-0.2-1.1c-0.2-0.2-0.4-0.2-1.1-0.2h-3.8c-0.7,0-0.9,0-1.1,0.2c-0.2,0.2-0.2,0.4-0.2,1.1V765.1z"/>
	<path fill="#FFFFFF" d="M626.5,767.6h-0.8l-4.5-7.4h1.4l3.5,5.9l1.3-2.1l-2.3-3.8h1.4l3.5,5.9l3.5-5.9h1.4l-4.5,7.4h-0.8l-1.5-2.5
		L626.5,767.6z"/>
</g>
<polygon fill="#EAF2F4" stroke="#608899" stroke-width="0.5" stroke-miterlimit="10" points="495.2,842.8 569.1,842.8 638,842.8 
	643.8,839.6 643.8,819.3 638.9,815.2 603.4,815.2 600,816.9 570.3,816.9 567.9,816.9 533.2,816.9 529.8,815.2 494.3,815.2 
	489.4,819.3 489.4,839.6 "/>
<g>
	<path fill="#231F20" d="M507.4,826.2c0.8,0,1.3,0.2,1.7,0.5c0.4,0.4,0.5,0.8,0.5,1.7v0.7c0,0.8-0.1,1.3-0.5,1.7
		c-0.4,0.4-0.9,0.5-1.7,0.5H502v2.2h-1.2v-7.4H507.4z M507.1,830.2c0.7,0,0.9,0,1.1-0.2c0.2-0.1,0.2-0.3,0.2-0.7v-1.2
		c0-0.3-0.1-0.5-0.2-0.7c-0.2-0.2-0.4-0.2-1.1-0.2H502v3H507.1z"/>
	<path fill="#231F20" d="M518.5,826.2c0.8,0,1.3,0.2,1.7,0.5c0.4,0.4,0.5,0.8,0.5,1.7v0.6c0,0.8-0.2,1.3-0.5,1.7
		c-0.3,0.3-0.6,0.4-1.2,0.5l1.8,2.4h-1.5l-1.6-2.4H513v2.4h-1.2v-7.4H518.5z M518.2,830.1c0.7,0,0.9,0,1.1-0.2
		c0.2-0.1,0.2-0.3,0.2-0.7v-1c0-0.3-0.1-0.5-0.2-0.7c-0.2-0.2-0.4-0.2-1.1-0.2H513v2.8H518.2z"/>
	<path fill="#231F20" d="M524.5,827.3v2h6.7l-0.1,1.1h-6.6v2h7v1.1h-8.2v-7.4h7.9v1.1H524.5z"/>
	<path fill="#231F20" d="M532.8,829.3h3.8v1.1h-3.8V829.3z"/>
	<path fill="#231F20" d="M547,831.4c0,0.8-0.1,1.3-0.5,1.7c-0.4,0.4-0.9,0.5-1.7,0.5h-4.4c-0.8,0-1.3-0.2-1.7-0.5
		c-0.4-0.4-0.5-0.8-0.5-1.7v-3c0-0.8,0.1-1.3,0.5-1.7c0.4-0.4,0.9-0.5,1.7-0.5h4.4c0.8,0,1.3,0.2,1.7,0.5c0.4,0.4,0.5,0.8,0.5,1.7
		V831.4z M539.4,831.1c0,0.7,0,0.9,0.2,1.1c0.2,0.2,0.4,0.2,1.1,0.2h3.8c0.7,0,0.9,0,1.1-0.2c0.2-0.2,0.2-0.4,0.2-1.1v-2.5
		c0-0.7,0-0.9-0.2-1.1c-0.2-0.2-0.4-0.2-1.1-0.2h-3.8c-0.7,0-0.9,0-1.1,0.2c-0.2,0.2-0.2,0.4-0.2,1.1V831.1z"/>
	<path fill="#231F20" d="M556.4,826.2c0.8,0,1.3,0.2,1.7,0.5c0.4,0.4,0.5,0.8,0.5,1.7v0.6c0,0.8-0.2,1.3-0.5,1.7
		c-0.3,0.3-0.6,0.4-1.2,0.5l1.8,2.4h-1.5l-1.6-2.4h-4.6v2.4h-1.2v-7.4H556.4z M556.1,830.1c0.7,0,0.9,0,1.1-0.2
		c0.2-0.1,0.2-0.3,0.2-0.7v-1c0-0.3-0.1-0.5-0.2-0.7c-0.2-0.2-0.4-0.2-1.1-0.2h-5.2v2.8H556.1z"/>
	<path fill="#231F20" d="M567.9,826.2c0.8,0,1.3,0.2,1.7,0.5c0.4,0.4,0.5,0.8,0.5,1.7v3c0,0.8-0.1,1.3-0.5,1.7
		c-0.4,0.4-0.9,0.5-1.7,0.5h-6.6v-7.4H567.9z M562.5,832.5h5.2c0.7,0,0.9,0,1.1-0.2c0.2-0.2,0.2-0.4,0.2-1.1v-2.5
		c0-0.7,0-0.9-0.2-1.1c-0.2-0.2-0.4-0.2-1.1-0.2h-5.2V832.5z"/>
	<path fill="#231F20" d="M574,827.3v2h6.7l-0.1,1.1H574v2h7v1.1h-8.2v-7.4h7.9v1.1H574z"/>
	<path fill="#231F20" d="M590,826.2c0.8,0,1.3,0.2,1.7,0.5c0.4,0.4,0.5,0.8,0.5,1.7v0.6c0,0.8-0.2,1.3-0.5,1.7
		c-0.3,0.3-0.6,0.4-1.2,0.5l1.8,2.4h-1.5l-1.6-2.4h-4.6v2.4h-1.2v-7.4H590z M589.7,830.1c0.7,0,0.9,0,1.1-0.2
		c0.2-0.1,0.2-0.3,0.2-0.7v-1c0-0.3-0.1-0.5-0.2-0.7c-0.2-0.2-0.4-0.2-1.1-0.2h-5.2v2.8H589.7z"/>
	<path fill="#231F20" d="M600.5,833.6h-1.2v-7.4h1.2l6.5,4v-4h1.2v7.4H607v-2.1l-6.5-4V833.6z"/>
	<path fill="#231F20" d="M619.7,831.4c0,0.8-0.1,1.3-0.5,1.7c-0.4,0.4-0.9,0.5-1.7,0.5H613c-0.8,0-1.3-0.2-1.7-0.5
		c-0.4-0.4-0.5-0.8-0.5-1.7v-3c0-0.8,0.1-1.3,0.5-1.7c0.4-0.4,0.9-0.5,1.7-0.5h4.4c0.8,0,1.3,0.2,1.7,0.5c0.4,0.4,0.5,0.8,0.5,1.7
		V831.4z M612,831.1c0,0.7,0,0.9,0.2,1.1c0.2,0.2,0.4,0.2,1.1,0.2h3.8c0.7,0,0.9,0,1.1-0.2c0.2-0.2,0.2-0.4,0.2-1.1v-2.5
		c0-0.7,0-0.9-0.2-1.1c-0.2-0.2-0.4-0.2-1.1-0.2h-3.8c-0.7,0-0.9,0-1.1,0.2c-0.2,0.2-0.2,0.4-0.2,1.1V831.1z"/>
	<path fill="#231F20" d="M626.5,833.6h-0.8l-4.5-7.4h1.4l3.5,5.9l1.3-2.1l-2.3-3.8h1.4l3.5,5.9l3.5-5.9h1.4l-4.5,7.4h-0.8l-1.5-2.5
		L626.5,833.6z"/>
</g>
<g>
</g>
<g>
</g>
<g>
</g>
<g>
</g>
<g>
</g>
<g>
</g>
<g>
</g>
<g>
</g>
<g>
</g>
<g>
</g>
<g>
</g>
<g>
</g>
<g>
</g>
<g>
</g>
<g>
</g>
</svg>
